{
	"hooks": [
		{
			"name" : "dw.ocapi.shop.category.modifyGETResponse",
       		"script" : "./hooks/categories_modifyGetResponse.ds"
		},
		{
			"name" : "dw.ocapi.shop.basket.shipment.shipping_address.afterPUT",
			"script" : "./hooks/basket_shippingAddress_afterPUT.ds"
		},
		{
			"name" : "dw.ocapi.shop.order.afterPOST",
       		"script" : "./hooks/order_afterPost.ds"
		}
	]
}